^C:\USERS\PENCI\ONEDRIVE\DESKTOP\CODE\GPC_MASTER\TESTING\PHYSICS\SRC\MAIN.CPP
/c /IC:\USERS\PENCI\OF_0.11_VS\OF_V0.11.0_VS2017_RELEASE\LIBS\OPENFRAMEWORKSCOMPILED\PROJECT\VS\\..\..\..\..\\LIBS\OPENFRAMEWORKS /IC:\USERS\PENCI\OF_0.11_VS\OF_V0.11.0_VS2017_RELEASE\LIBS\OPENFRAMEWORKSCOMPILED\PROJECT\VS\\..\..\..\..\\LIBS\OPENFRAMEWORKS\GRAPHICS /IC:\USERS\PENCI\OF_0.11_VS\OF_V0.11.0_VS2017_RELEASE\LIBS\OPENFRAMEWORKSCOMPILED\PROJECT\VS\\..\..\..\..\\LIBS\OPENFRAMEWORKS\APP /IC:\USERS\PENCI\OF_0.11_VS\OF_V0.11.0_VS2017_RELEASE\LIBS\OPENFRAMEWORKSCOMPILED\PROJECT\VS\\..\..\..\..\\LIBS\OPENFRAMEWORKS\SOUND /IC:\USERS\PENCI\OF_0.11_VS\OF_V0.11.0_VS2017_RELEASE\LIBS\OPENFRAMEWORKSCOMPILED\PROJECT\VS\\..\..\..\..\\LIBS\OPENFRAMEWORKS\UTILS /IC:\USERS\PENCI\OF_0.11_VS\OF_V0.11.0_VS2017_RELEASE\LIBS\OPENFRAMEWORKSCOMPILED\PROJECT\VS\\..\..\..\..\\LIBS\OPENFRAMEWORKS\COMMUNICATION /IC:\USERS\PENCI\OF_0.11_VS\OF_V0.11.0_VS2017_RELEASE\LIBS\OPENFRAMEWORKSCOMPILED\PROJECT\VS\\..\..\..\..\\LIBS\OPENFRAMEWORKS\VIDEO /IC:\USERS\PENCI\OF_0.11_VS\OF_V0.11.0_VS2017_RELEASE\LIBS\OPENFRAMEWORKSCOMPILED\PROJECT\VS\\..\..\..\..\\LIBS\OPENFRAMEWORKS\TYPES /IC:\USERS\PENCI\OF_0.11_VS\OF_V0.11.0_VS2017_RELEASE\LIBS\OPENFRAMEWORKSCOMPILED\PROJECT\VS\\..\..\..\..\\LIBS\OPENFRAMEWORKS\MATH /IC:\USERS\PENCI\OF_0.11_VS\OF_V0.11.0_VS2017_RELEASE\LIBS\OPENFRAMEWORKSCOMPILED\PROJECT\VS\\..\..\..\..\\LIBS\OPENFRAMEWORKS\3D /IC:\USERS\PENCI\OF_0.11_VS\OF_V0.11.0_VS2017_RELEASE\LIBS\OPENFRAMEWORKSCOMPILED\PROJECT\VS\\..\..\..\..\\LIBS\OPENFRAMEWORKS\GL /IC:\USERS\PENCI\OF_0.11_VS\OF_V0.11.0_VS2017_RELEASE\LIBS\OPENFRAMEWORKSCOMPILED\PROJECT\VS\\..\..\..\..\\LIBS\OPENFRAMEWORKS\EVENTS /IC:\USERS\PENCI\OF_0.11_VS\OF_V0.11.0_VS2017_RELEASE\LIBS\OPENFRAMEWORKSCOMPILED\PROJECT\VS\\..\..\..\..\\LIBS\GLM\INCLUDE /IC:\USERS\PENCI\OF_0.11_VS\OF_V0.11.0_VS2017_RELEASE\LIBS\OPENFRAMEWORKSCOMPILED\PROJECT\VS\\..\..\..\..\\LIBS\RTAUDIO\INCLUDE /IC:\USERS\PENCI\OF_0.11_VS\OF_V0.11.0_VS2017_RELEASE\LIBS\OPENFRAMEWORKSCOMPILED\PROJECT\VS\\..\..\..\..\\LIBS\QUICKTIME\INCLUDE /IC:\USERS\PENCI\OF_0.11_VS\OF_V0.11.0_VS2017_RELEASE\LIBS\OPENFRAMEWORKSCOMPILED\PROJECT\VS\\..\..\..\..\\LIBS\FREETYPE\INCLUDE /IC:\USERS\PENCI\OF_0.11_VS\OF_V0.11.0_VS2017_RELEASE\LIBS\OPENFRAMEWORKSCOMPILED\PROJECT\VS\\..\..\..\..\\LIBS\FREETYPE\INCLUDE\FREETYPE2 /IC:\USERS\PENCI\OF_0.11_VS\OF_V0.11.0_VS2017_RELEASE\LIBS\OPENFRAMEWORKSCOMPILED\PROJECT\VS\\..\..\..\..\\LIBS\FREEIMAGE\INCLUDE /IC:\USERS\PENCI\OF_0.11_VS\OF_V0.11.0_VS2017_RELEASE\LIBS\OPENFRAMEWORKSCOMPILED\PROJECT\VS\\..\..\..\..\\LIBS\FMODEX\INCLUDE /IC:\USERS\PENCI\OF_0.11_VS\OF_V0.11.0_VS2017_RELEASE\LIBS\OPENFRAMEWORKSCOMPILED\PROJECT\VS\\..\..\..\..\\LIBS\VIDEOINPUT\INCLUDE /IC:\USERS\PENCI\OF_0.11_VS\OF_V0.11.0_VS2017_RELEASE\LIBS\OPENFRAMEWORKSCOMPILED\PROJECT\VS\\..\..\..\..\\LIBS\GLEW\INCLUDE\ /IC:\USERS\PENCI\OF_0.11_VS\OF_V0.11.0_VS2017_RELEASE\LIBS\OPENFRAMEWORKSCOMPILED\PROJECT\VS\\..\..\..\..\\LIBS\GLU\INCLUDE /IC:\USERS\PENCI\OF_0.11_VS\OF_V0.11.0_VS2017_RELEASE\LIBS\OPENFRAMEWORKSCOMPILED\PROJECT\VS\\..\..\..\..\\LIBS\TESS2\INCLUDE /IC:\USERS\PENCI\OF_0.11_VS\OF_V0.11.0_VS2017_RELEASE\LIBS\OPENFRAMEWORKSCOMPILED\PROJECT\VS\\..\..\..\..\\LIBS\CAIRO\INCLUDE\CAIRO /IC:\USERS\PENCI\OF_0.11_VS\OF_V0.11.0_VS2017_RELEASE\LIBS\OPENFRAMEWORKSCOMPILED\PROJECT\VS\\..\..\..\..\\LIBS\GLFW\INCLUDE /IC:\USERS\PENCI\OF_0.11_VS\OF_V0.11.0_VS2017_RELEASE\LIBS\OPENFRAMEWORKSCOMPILED\PROJECT\VS\\..\..\..\..\\LIBS\OPENSSL\INCLUDE /IC:\USERS\PENCI\OF_0.11_VS\OF_V0.11.0_VS2017_RELEASE\LIBS\OPENFRAMEWORKSCOMPILED\PROJECT\VS\\..\..\..\..\\LIBS\UTF8\INCLUDE /IC:\USERS\PENCI\OF_0.11_VS\OF_V0.11.0_VS2017_RELEASE\LIBS\OPENFRAMEWORKSCOMPILED\PROJECT\VS\\..\..\..\..\\LIBS\BOOST\INCLUDE /IC:\USERS\PENCI\OF_0.11_VS\OF_V0.11.0_VS2017_RELEASE\LIBS\OPENFRAMEWORKSCOMPILED\PROJECT\VS\\..\..\..\..\\LIBS\JSON\INCLUDE /IC:\USERS\PENCI\OF_0.11_VS\OF_V0.11.0_VS2017_RELEASE\LIBS\OPENFRAMEWORKSCOMPILED\PROJECT\VS\\..\..\..\..\\LIBS\CURL\INCLUDE /IC:\USERS\PENCI\OF_0.11_VS\OF_V0.11.0_VS2017_RELEASE\LIBS\OPENFRAMEWORKSCOMPILED\PROJECT\VS\\..\..\..\..\\LIBS\URIPARSER\INCLUDE /IC:\USERS\PENCI\OF_0.11_VS\OF_V0.11.0_VS2017_RELEASE\LIBS\OPENFRAMEWORKSCOMPILED\PROJECT\VS\\..\..\..\..\\LIBS\PUGIXML\INCLUDE /IC:\USERS\PENCI\OF_0.11_VS\OF_V0.11.0_VS2017_RELEASE\LIBS\OPENFRAMEWORKSCOMPILED\PROJECT\VS\\..\..\..\..\\ADDONS /Zi /nologo /W3 /WX- /diagnostics:column /Od /Oy- /D WIN32 /D _DEBUG /D _CONSOLE /D POCO_STATIC /D CAIRO_WIN32_STATIC_BUILD /D DISABLE_SOME_FLOATING_POINT /D _UNICODE /D UNICODE /Gm- /EHsc /RTC1 /MDd /GS /fp:precise /Zc:wchar_t /Zc:forScope /Zc:inline /Fo"OBJ\WIN32\DEBUG\\" /Fd"OBJ\WIN32\DEBUG\VC142.PDB" /Gd /TP /analyze- /FC C:\USERS\PENCI\ONEDRIVE\DESKTOP\CODE\GPC_MASTER\TESTING\PHYSICS\SRC\MAIN.CPP
^C:\USERS\PENCI\ONEDRIVE\DESKTOP\CODE\GPC_MASTER\TESTING\PHYSICS\SRC\OFAPP.CPP
/c /IC:\USERS\PENCI\OF_0.11_VS\OF_V0.11.0_VS2017_RELEASE\LIBS\OPENFRAMEWORKSCOMPILED\PROJECT\VS\\..\..\..\..\\LIBS\OPENFRAMEWORKS /IC:\USERS\PENCI\OF_0.11_VS\OF_V0.11.0_VS2017_RELEASE\LIBS\OPENFRAMEWORKSCOMPILED\PROJECT\VS\\..\..\..\..\\LIBS\OPENFRAMEWORKS\GRAPHICS /IC:\USERS\PENCI\OF_0.11_VS\OF_V0.11.0_VS2017_RELEASE\LIBS\OPENFRAMEWORKSCOMPILED\PROJECT\VS\\..\..\..\..\\LIBS\OPENFRAMEWORKS\APP /IC:\USERS\PENCI\OF_0.11_VS\OF_V0.11.0_VS2017_RELEASE\LIBS\OPENFRAMEWORKSCOMPILED\PROJECT\VS\\..\..\..\..\\LIBS\OPENFRAMEWORKS\SOUND /IC:\USERS\PENCI\OF_0.11_VS\OF_V0.11.0_VS2017_RELEASE\LIBS\OPENFRAMEWORKSCOMPILED\PROJECT\VS\\..\..\..\..\\LIBS\OPENFRAMEWORKS\UTILS /IC:\USERS\PENCI\OF_0.11_VS\OF_V0.11.0_VS2017_RELEASE\LIBS\OPENFRAMEWORKSCOMPILED\PROJECT\VS\\..\..\..\..\\LIBS\OPENFRAMEWORKS\COMMUNICATION /IC:\USERS\PENCI\OF_0.11_VS\OF_V0.11.0_VS2017_RELEASE\LIBS\OPENFRAMEWORKSCOMPILED\PROJECT\VS\\..\..\..\..\\LIBS\OPENFRAMEWORKS\VIDEO /IC:\USERS\PENCI\OF_0.11_VS\OF_V0.11.0_VS2017_RELEASE\LIBS\OPENFRAMEWORKSCOMPILED\PROJECT\VS\\..\..\..\..\\LIBS\OPENFRAMEWORKS\TYPES /IC:\USERS\PENCI\OF_0.11_VS\OF_V0.11.0_VS2017_RELEASE\LIBS\OPENFRAMEWORKSCOMPILED\PROJECT\VS\\..\..\..\..\\LIBS\OPENFRAMEWORKS\MATH /IC:\USERS\PENCI\OF_0.11_VS\OF_V0.11.0_VS2017_RELEASE\LIBS\OPENFRAMEWORKSCOMPILED\PROJECT\VS\\..\..\..\..\\LIBS\OPENFRAMEWORKS\3D /IC:\USERS\PENCI\OF_0.11_VS\OF_V0.11.0_VS2017_RELEASE\LIBS\OPENFRAMEWORKSCOMPILED\PROJECT\VS\\..\..\..\..\\LIBS\OPENFRAMEWORKS\GL /IC:\USERS\PENCI\OF_0.11_VS\OF_V0.11.0_VS2017_RELEASE\LIBS\OPENFRAMEWORKSCOMPILED\PROJECT\VS\\..\..\..\..\\LIBS\OPENFRAMEWORKS\EVENTS /IC:\USERS\PENCI\OF_0.11_VS\OF_V0.11.0_VS2017_RELEASE\LIBS\OPENFRAMEWORKSCOMPILED\PROJECT\VS\\..\..\..\..\\LIBS\GLM\INCLUDE /IC:\USERS\PENCI\OF_0.11_VS\OF_V0.11.0_VS2017_RELEASE\LIBS\OPENFRAMEWORKSCOMPILED\PROJECT\VS\\..\..\..\..\\LIBS\RTAUDIO\INCLUDE /IC:\USERS\PENCI\OF_0.11_VS\OF_V0.11.0_VS2017_RELEASE\LIBS\OPENFRAMEWORKSCOMPILED\PROJECT\VS\\..\..\..\..\\LIBS\QUICKTIME\INCLUDE /IC:\USERS\PENCI\OF_0.11_VS\OF_V0.11.0_VS2017_RELEASE\LIBS\OPENFRAMEWORKSCOMPILED\PROJECT\VS\\..\..\..\..\\LIBS\FREETYPE\INCLUDE /IC:\USERS\PENCI\OF_0.11_VS\OF_V0.11.0_VS2017_RELEASE\LIBS\OPENFRAMEWORKSCOMPILED\PROJECT\VS\\..\..\..\..\\LIBS\FREETYPE\INCLUDE\FREETYPE2 /IC:\USERS\PENCI\OF_0.11_VS\OF_V0.11.0_VS2017_RELEASE\LIBS\OPENFRAMEWORKSCOMPILED\PROJECT\VS\\..\..\..\..\\LIBS\FREEIMAGE\INCLUDE /IC:\USERS\PENCI\OF_0.11_VS\OF_V0.11.0_VS2017_RELEASE\LIBS\OPENFRAMEWORKSCOMPILED\PROJECT\VS\\..\..\..\..\\LIBS\FMODEX\INCLUDE /IC:\USERS\PENCI\OF_0.11_VS\OF_V0.11.0_VS2017_RELEASE\LIBS\OPENFRAMEWORKSCOMPILED\PROJECT\VS\\..\..\..\..\\LIBS\VIDEOINPUT\INCLUDE /IC:\USERS\PENCI\OF_0.11_VS\OF_V0.11.0_VS2017_RELEASE\LIBS\OPENFRAMEWORKSCOMPILED\PROJECT\VS\\..\..\..\..\\LIBS\GLEW\INCLUDE\ /IC:\USERS\PENCI\OF_0.11_VS\OF_V0.11.0_VS2017_RELEASE\LIBS\OPENFRAMEWORKSCOMPILED\PROJECT\VS\\..\..\..\..\\LIBS\GLU\INCLUDE /IC:\USERS\PENCI\OF_0.11_VS\OF_V0.11.0_VS2017_RELEASE\LIBS\OPENFRAMEWORKSCOMPILED\PROJECT\VS\\..\..\..\..\\LIBS\TESS2\INCLUDE /IC:\USERS\PENCI\OF_0.11_VS\OF_V0.11.0_VS2017_RELEASE\LIBS\OPENFRAMEWORKSCOMPILED\PROJECT\VS\\..\..\..\..\\LIBS\CAIRO\INCLUDE\CAIRO /IC:\USERS\PENCI\OF_0.11_VS\OF_V0.11.0_VS2017_RELEASE\LIBS\OPENFRAMEWORKSCOMPILED\PROJECT\VS\\..\..\..\..\\LIBS\GLFW\INCLUDE /IC:\USERS\PENCI\OF_0.11_VS\OF_V0.11.0_VS2017_RELEASE\LIBS\OPENFRAMEWORKSCOMPILED\PROJECT\VS\\..\..\..\..\\LIBS\OPENSSL\INCLUDE /IC:\USERS\PENCI\OF_0.11_VS\OF_V0.11.0_VS2017_RELEASE\LIBS\OPENFRAMEWORKSCOMPILED\PROJECT\VS\\..\..\..\..\\LIBS\UTF8\INCLUDE /IC:\USERS\PENCI\OF_0.11_VS\OF_V0.11.0_VS2017_RELEASE\LIBS\OPENFRAMEWORKSCOMPILED\PROJECT\VS\\..\..\..\..\\LIBS\BOOST\INCLUDE /IC:\USERS\PENCI\OF_0.11_VS\OF_V0.11.0_VS2017_RELEASE\LIBS\OPENFRAMEWORKSCOMPILED\PROJECT\VS\\..\..\..\..\\LIBS\JSON\INCLUDE /IC:\USERS\PENCI\OF_0.11_VS\OF_V0.11.0_VS2017_RELEASE\LIBS\OPENFRAMEWORKSCOMPILED\PROJECT\VS\\..\..\..\..\\LIBS\CURL\INCLUDE /IC:\USERS\PENCI\OF_0.11_VS\OF_V0.11.0_VS2017_RELEASE\LIBS\OPENFRAMEWORKSCOMPILED\PROJECT\VS\\..\..\..\..\\LIBS\URIPARSER\INCLUDE /IC:\USERS\PENCI\OF_0.11_VS\OF_V0.11.0_VS2017_RELEASE\LIBS\OPENFRAMEWORKSCOMPILED\PROJECT\VS\\..\..\..\..\\LIBS\PUGIXML\INCLUDE /IC:\USERS\PENCI\OF_0.11_VS\OF_V0.11.0_VS2017_RELEASE\LIBS\OPENFRAMEWORKSCOMPILED\PROJECT\VS\\..\..\..\..\\ADDONS /Zi /nologo /W3 /WX- /diagnostics:column /Od /Oy- /D WIN32 /D _DEBUG /D _CONSOLE /D POCO_STATIC /D CAIRO_WIN32_STATIC_BUILD /D DISABLE_SOME_FLOATING_POINT /D _UNICODE /D UNICODE /Gm- /EHsc /RTC1 /MDd /GS /fp:precise /Zc:wchar_t /Zc:forScope /Zc:inline /Fo"OBJ\WIN32\DEBUG\\" /Fd"OBJ\WIN32\DEBUG\VC142.PDB" /Gd /TP /analyze- /FC C:\USERS\PENCI\ONEDRIVE\DESKTOP\CODE\GPC_MASTER\TESTING\PHYSICS\SRC\OFAPP.CPP
